{"count":10000,"next":"https://www.udemy.com/api-2.0/courses/?category=Business&page=2&page_size=12&price=price-paid","previous":null,"results":[{"_class":"course","id":4256770,"title":"Segmentation for Management Consultants & Business Analysts","url":"/course/segmentation-for-management-consultants-business-analysts/","is_paid":true,"price":"₦14,900","price_detail":{"amount":14900.0,"currency":"NGN","price_string":"₦14,900","currency_symbol":"₦"},"price_serve_tracking_id":"p6LvuSpPSfePfd3WbAwC-Q","visible_instructors":[{"_class":"user","id":6124030,"title":"Asen Gyczew","name":"Asen","display_name":"Asen Gyczew","job_title":"Expert in performance improvement, turnaround and startups","image_50x50":"https://img-b.udemycdn.com/user/50x50/6124030_efc1_2.jpg?secure=I0asQj0EzsOumwiTh3ZNGw%3D%3D%2C1640770979","image_100x100":"https://img-c.udemycdn.com/user/100x100/6124030_efc1_2.jpg","initials":"AG","url":"/user/asengyczew/"}],"image_125_H":"https://img-c.udemycdn.com/course/125_H/4256770_4410.jpg","image_240x135":"https://img-c.udemycdn.com/course/240x135/4256770_4410.jpg","is_practice_test_course":false,"image_480x270":"https://img-c.udemycdn.com/course/480x270/4256770_4410.jpg","published_title":"segmentation-for-management-consultants-business-analysts","tracking_id":"u3a2SKalSUyB7d5spZpyIA","predictive_score":null,"relevancy_score":null,"input_features":null,"lecture_search_result":null,"curriculum_lectures":[],"order_in_results":null,"curriculum_items":[],"headline":"A practical guide on how to analyze segments of customers during consulting projects","instructor_name":null},{"_class":"course","id":4399774,"title":"Ebay Dropshipping ve Amazon Fba  Wholesale Nasil Yapilir ?","url":"/course/amazon-fba-ebay-dropshipping-kindle-merch-facebook-etsy-2022/","is_paid":true,"price":"₦21,900","price_detail":{"amount":21900.0,"currency":"NGN","price_string":"₦21,900","currency_symbol":"₦"},"price_serve_tracking_id":"ZxNXTA4LQTWbk70kMdjxEg","visible_instructors":[{"_class":"user","id":105335988,"title":"Akin Yilmaz","name":"Akin","display_name":"Akin Yilmaz","job_title":"(Dropshipping Expert) - Ecommerce Entrepreneur - Ebay Amazon","image_50x50":"https://img-c.udemycdn.com/user/50x50/105335988_7cbc_5.jpg","image_100x100":"https://img-c.udemycdn.com/user/100x100/105335988_7cbc_5.jpg","initials":"AY","url":"/user/akin-yilmaz-16/"}],"image_125_H":"https://img-c.udemycdn.com/course/125_H/4399774_7692_9.jpg","image_240x135":"https://img-c.udemycdn.com/course/240x135/4399774_7692_9.jpg","is_practice_test_course":false,"image_480x270":"https://img-c.udemycdn.com/course/480x270/4399774_7692_9.jpg","published_title":"amazon-fba-ebay-dropshipping-kindle-merch-facebook-etsy-2022","tracking_id":"vFnOERQtQZaq7Bvvowjt4Q","predictive_score":null,"relevancy_score":null,"input_features":null,"lecture_search_result":null,"curriculum_lectures":[],"order_in_results":null,"curriculum_items":[],"headline":"Dropshipping Amazon FBA  FBM ve Ebay Dropshipping Toptanci ve Retail Business Nasil Yapilir","instructor_name":null},{"_class":"course","id":4064682,"title":"Guide to PMP Certification | A Step-by-Step Guide for 2021","url":"/course/guide-to-pmp-certification-a-step-by-step-guide-for-2021/","is_paid":true,"price":"₦5,500","price_detail":{"amount":5500.0,"currency":"NGN","price_string":"₦5,500","currency_symbol":"₦"},"price_serve_tracking_id":"TbVP88bDTzODyPBt_WQzSA","visible_instructors":[{"_class":"user","id":46670866,"title":"R Tutor","name":"R","display_name":"R Tutor","job_title":"A expert team of Professors and a Lawyers","image_50x50":"https://img-c.udemycdn.com/user/50x50/46670866_48df_5.jpg","image_100x100":"https://img-c.udemycdn.com/user/100x100/46670866_48df_5.jpg","initials":"RT","url":"/user/rahul-878/"}],"image_125_H":"https://img-c.udemycdn.com/course/125_H/4064682_4841.jpg","image_240x135":"https://img-c.udemycdn.com/course/240x135/4064682_4841.jpg","is_practice_test_course":false,"image_480x270":"https://img-c.udemycdn.com/course/480x270/4064682_4841.jpg","published_title":"guide-to-pmp-certification-a-step-by-step-guide-for-2021","tracking_id":"voS1nQpuRYCoEt2WvvVJ8w","predictive_score":null,"relevancy_score":null,"input_features":null,"lecture_search_result":null,"curriculum_lectures":[],"order_in_results":null,"curriculum_items":[],"headline":"Guide to PMP Certification | A Step-by-Step Guide for 2021","instructor_name":null},{"_class":"course","id":4064708,"title":"Master Agile Methodology | A Step-by-Step Guide for 2021","url":"/course/master-agile-methodology-a-step-by-step-guide-for-2021/","is_paid":true,"price":"₦5,500","price_detail":{"amount":5500.0,"currency":"NGN","price_string":"₦5,500","currency_symbol":"₦"},"price_serve_tracking_id":"Y3ub0PIVR6yVReuFUV94Fg","visible_instructors":[{"_class":"user","id":46670866,"title":"R Tutor","name":"R","display_name":"R Tutor","job_title":"A expert team of Professors and a Lawyers","image_50x50":"https://img-c.udemycdn.com/user/50x50/46670866_48df_5.jpg","image_100x100":"https://img-c.udemycdn.com/user/100x100/46670866_48df_5.jpg","initials":"RT","url":"/user/rahul-878/"}],"image_125_H":"https://img-c.udemycdn.com/course/125_H/4064708_7216.jpg","image_240x135":"https://img-c.udemycdn.com/course/240x135/4064708_7216.jpg","is_practice_test_course":false,"image_480x270":"https://img-c.udemycdn.com/course/480x270/4064708_7216.jpg","published_title":"master-agile-methodology-a-step-by-step-guide-for-2021","tracking_id":"a6eMDwR_QFirs3zdHEqCAA","predictive_score":null,"relevancy_score":null,"input_features":null,"lecture_search_result":null,"curriculum_lectures":[],"order_in_results":null,"curriculum_items":[],"headline":"Master Agile Methodology | A Step-by-Step Guide for 2021","instructor_name":null},{"_class":"course","id":4064766,"title":"Master Six Sigma methodology | A Step-by-Step Guide for 2021","url":"/course/master-six-sigma-methodology-a-step-by-step-guide-for-2021/","is_paid":true,"price":"₦5,500","price_detail":{"amount":5500.0,"currency":"NGN","price_string":"₦5,500","currency_symbol":"₦"},"price_serve_tracking_id":"Icvb6vbQTACyPp6_6uJkXQ","visible_instructors":[{"_class":"user","id":46670866,"title":"R Tutor","name":"R","display_name":"R Tutor","job_title":"A expert team of Professors and a Lawyers","image_50x50":"https://img-c.udemycdn.com/user/50x50/46670866_48df_5.jpg","image_100x100":"https://img-c.udemycdn.com/user/100x100/46670866_48df_5.jpg","initials":"RT","url":"/user/rahul-878/"}],"image_125_H":"https://img-c.udemycdn.com/course/125_H/4064766_2c58.jpg","image_240x135":"https://img-c.udemycdn.com/course/240x135/4064766_2c58.jpg","is_practice_test_course":false,"image_480x270":"https://img-c.udemycdn.com/course/480x270/4064766_2c58.jpg","published_title":"master-six-sigma-methodology-a-step-by-step-guide-for-2021","tracking_id":"iqkT5SCZSuu70Oq48JGqlw","predictive_score":null,"relevancy_score":null,"input_features":null,"lecture_search_result":null,"curriculum_lectures":[],"order_in_results":null,"curriculum_items":[],"headline":"Master Six Sigma methodology | A Step-by-Step Guide for 2021","instructor_name":null},{"_class":"course","id":4254192,"title":"Business Model Innovation for Management Consultants","url":"/course/business-model-innovation-for-management-consultants/","is_paid":true,"price":"₦21,900","price_detail":{"amount":21900.0,"currency":"NGN","price_string":"₦21,900","currency_symbol":"₦"},"price_serve_tracking_id":"Ef22leyDTyalRjBxrDFicQ","visible_instructors":[{"_class":"user","id":6124030,"title":"Asen Gyczew","name":"Asen","display_name":"Asen Gyczew","job_title":"Expert in performance improvement, turnaround and startups","image_50x50":"https://img-b.udemycdn.com/user/50x50/6124030_efc1_2.jpg?secure=I0asQj0EzsOumwiTh3ZNGw%3D%3D%2C1640770979","image_100x100":"https://img-c.udemycdn.com/user/100x100/6124030_efc1_2.jpg","initials":"AG","url":"/user/asengyczew/"}],"image_125_H":"https://img-c.udemycdn.com/course/125_H/4254192_a3b7.jpg","image_240x135":"https://img-c.udemycdn.com/course/240x135/4254192_a3b7.jpg","is_practice_test_course":false,"image_480x270":"https://img-c.udemycdn.com/course/480x270/4254192_a3b7.jpg","published_title":"business-model-innovation-for-management-consultants","tracking_id":"eQHasPgfSeeixck9OFvbvg","predictive_score":null,"relevancy_score":null,"input_features":null,"lecture_search_result":null,"curriculum_lectures":[],"order_in_results":null,"curriculum_items":[],"headline":"A practical guide on how to change & innovate the business, disrupt incumbent players like Amazon, Tesla, Google, Apple","instructor_name":null},{"_class":"course","id":4076770,"title":"Production Planning for Management Consultants & Analysts","url":"/course/production-planning-for-management-consultants-analysts/","is_paid":true,"price":"₦19,900","price_detail":{"amount":19900.0,"currency":"NGN","price_string":"₦19,900","currency_symbol":"₦"},"price_serve_tracking_id":"rwvJ7ZxZRMe3xRkR5v8F_g","visible_instructors":[{"_class":"user","id":6124030,"title":"Asen Gyczew","name":"Asen","display_name":"Asen Gyczew","job_title":"Expert in performance improvement, turnaround and startups","image_50x50":"https://img-c.udemycdn.com/user/50x50/6124030_efc1_2.jpg","image_100x100":"https://img-c.udemycdn.com/user/100x100/6124030_efc1_2.jpg","initials":"AG","url":"/user/asengyczew/"}],"image_125_H":"https://img-c.udemycdn.com/course/125_H/4076770_6cc6_2.jpg","image_240x135":"https://img-c.udemycdn.com/course/240x135/4076770_6cc6_2.jpg","is_practice_test_course":false,"image_480x270":"https://img-c.udemycdn.com/course/480x270/4076770_6cc6_2.jpg","published_title":"production-planning-for-management-consultants-analysts","tracking_id":"UNGIm9y0RDKGzrXsxEDcOg","predictive_score":null,"relevancy_score":null,"input_features":null,"lecture_search_result":null,"curriculum_lectures":[],"order_in_results":null,"curriculum_items":[],"headline":"A practical guide on how to do analyses during consulting projects","instructor_name":null},{"_class":"course","id":640940,"title":"The Customer: How to Manage Customer Feedback (BITE SIZE)","url":"/course/customer-how-to-manage-customer-feedback/","is_paid":true,"price":"₦6,500","price_detail":{"amount":6500.0,"currency":"NGN","price_string":"₦6,500","currency_symbol":"₦"},"price_serve_tracking_id":"Ij1QB59qRfCq4VWsYVENaw","visible_instructors":[{"_class":"user","id":13379404,"title":"Learoy Tonight","name":"Learoy","display_name":"Learoy Tonight","job_title":"Bite Size Learning","image_50x50":"https://img-c.udemycdn.com/user/50x50/13379404_47ea_4.jpg","image_100x100":"https://img-c.udemycdn.com/user/100x100/13379404_47ea_4.jpg","initials":"LT","url":"/user/learoy/"}],"image_125_H":"https://img-c.udemycdn.com/course/125_H/640940_c23d_5.jpg","image_240x135":"https://img-c.udemycdn.com/course/240x135/640940_c23d_5.jpg","is_practice_test_course":false,"image_480x270":"https://img-c.udemycdn.com/course/480x270/640940_c23d_5.jpg","published_title":"customer-how-to-manage-customer-feedback","tracking_id":"XlsmYjhdQDucDZVO1ONwkA","predictive_score":null,"relevancy_score":null,"input_features":null,"lecture_search_result":null,"curriculum_lectures":[],"order_in_results":null,"curriculum_items":[],"headline":"Create an environment that welcomes customer feedback. Educate your team on how to handle feedback and use it to improve","instructor_name":null},{"_class":"course","id":4064690,"title":"Guide to Prince2 Certification | Step-by-Step Guide for 2021","url":"/course/guide-to-prince2-certification-step-by-step-guide-for-2021/","is_paid":true,"price":"₦5,500","price_detail":{"amount":5500.0,"currency":"NGN","price_string":"₦5,500","currency_symbol":"₦"},"price_serve_tracking_id":"fK8k_tsvTQCJ6buUKRlG9Q","visible_instructors":[{"_class":"user","id":46670866,"title":"R Tutor","name":"R","display_name":"R Tutor","job_title":"A expert team of Professors and a Lawyers","image_50x50":"https://img-c.udemycdn.com/user/50x50/46670866_48df_5.jpg","image_100x100":"https://img-c.udemycdn.com/user/100x100/46670866_48df_5.jpg","initials":"RT","url":"/user/rahul-878/"}],"image_125_H":"https://img-c.udemycdn.com/course/125_H/4064690_415f.jpg","image_240x135":"https://img-c.udemycdn.com/course/240x135/4064690_415f.jpg","is_practice_test_course":false,"image_480x270":"https://img-c.udemycdn.com/course/480x270/4064690_415f.jpg","published_title":"guide-to-prince2-certification-step-by-step-guide-for-2021","tracking_id":"SlAZiK9MS0OK5NEawOa-5Q","predictive_score":null,"relevancy_score":null,"input_features":null,"lecture_search_result":null,"curriculum_lectures":[],"order_in_results":null,"curriculum_items":[],"headline":"Guide to Prince2 Certification | Step-by-Step Guide for 2021","instructor_name":null},{"_class":"course","id":4056420,"title":"Data Visualization with Microsoft Power BI for Data Science","url":"/course/data-visualization-with-microsoft-power-bi/","is_paid":true,"price":"₦4,500","price_detail":{"amount":4500.0,"currency":"NGN","price_string":"₦4,500","currency_symbol":"₦"},"price_serve_tracking_id":"XXSXW0DcQAqZE0V778SIlg","visible_instructors":[{"_class":"user","id":36175024,"title":"Harshit Srivastava","name":"Harshit","display_name":"Harshit Srivastava","job_title":"SME on Cloud, Bluemix","image_50x50":"https://img-c.udemycdn.com/user/50x50/36175024_f90b_7.jpg","image_100x100":"https://img-c.udemycdn.com/user/100x100/36175024_f90b_7.jpg","initials":"HS","url":"/user/6f61b5e2-a854-46c6-9650-3a8a385dac0d/"}],"image_125_H":"https://img-c.udemycdn.com/course/125_H/4056420_4c03.jpg","image_240x135":"https://img-c.udemycdn.com/course/240x135/4056420_4c03.jpg","is_practice_test_course":false,"image_480x270":"https://img-c.udemycdn.com/course/480x270/4056420_4c03.jpg","published_title":"data-visualization-with-microsoft-power-bi","tracking_id":"IH0z2qPxQkOsbOnoS2wZZA","predictive_score":null,"relevancy_score":null,"input_features":null,"lecture_search_result":null,"curriculum_lectures":[],"order_in_results":null,"curriculum_items":[],"headline":"Gauge Chart |Treemap |Pie |Donut |Ribbon |Scatterplot |Animation |Calculated Field |Slicer |Drill down in Power Bi","instructor_name":null},{"_class":"course","id":4064820,"title":"Master DevOps Tools | A Step-by-Step Guide for 2021","url":"/course/master-devops-tools-a-step-by-step-guide-for-2021/","is_paid":true,"price":"₦5,500","price_detail":{"amount":5500.0,"currency":"NGN","price_string":"₦5,500","currency_symbol":"₦"},"price_serve_tracking_id":"H8w5vwmWT5mlOgE1XC75dQ","visible_instructors":[{"_class":"user","id":46670866,"title":"R Tutor","name":"R","display_name":"R Tutor","job_title":"A expert team of Professors and a Lawyers","image_50x50":"https://img-c.udemycdn.com/user/50x50/46670866_48df_5.jpg","image_100x100":"https://img-c.udemycdn.com/user/100x100/46670866_48df_5.jpg","initials":"RT","url":"/user/rahul-878/"}],"image_125_H":"https://img-c.udemycdn.com/course/125_H/4064820_a67d.jpg","image_240x135":"https://img-c.udemycdn.com/course/240x135/4064820_a67d.jpg","is_practice_test_course":false,"image_480x270":"https://img-c.udemycdn.com/course/480x270/4064820_a67d.jpg","published_title":"master-devops-tools-a-step-by-step-guide-for-2021","tracking_id":"qxItK9hiQpKnP6eoH-pwww","predictive_score":null,"relevancy_score":null,"input_features":null,"lecture_search_result":null,"curriculum_lectures":[],"order_in_results":null,"curriculum_items":[],"headline":"Master DevOps Tools | A Step-by-Step Guide for 2021","instructor_name":null},{"_class":"course","id":4064718,"title":"Master Scrum methodology | A Step-by-Step Guide for 2021","url":"/course/master-scrum-methodology-a-step-by-step-guide-for-2021/","is_paid":true,"price":"₦5,500","price_detail":{"amount":5500.0,"currency":"NGN","price_string":"₦5,500","currency_symbol":"₦"},"price_serve_tracking_id":"kGWwb2ONR7q54DdY_n9JPw","visible_instructors":[{"_class":"user","id":46670866,"title":"R Tutor","name":"R","display_name":"R Tutor","job_title":"A expert team of Professors and a Lawyers","image_50x50":"https://img-c.udemycdn.com/user/50x50/46670866_48df_5.jpg","image_100x100":"https://img-c.udemycdn.com/user/100x100/46670866_48df_5.jpg","initials":"RT","url":"/user/rahul-878/"}],"image_125_H":"https://img-c.udemycdn.com/course/125_H/4064718_3bff.jpg","image_240x135":"https://img-c.udemycdn.com/course/240x135/4064718_3bff.jpg","is_practice_test_course":false,"image_480x270":"https://img-c.udemycdn.com/course/480x270/4064718_3bff.jpg","published_title":"master-scrum-methodology-a-step-by-step-guide-for-2021","tracking_id":"xqbmVHBtSkmBDWGfM-rfUA","predictive_score":null,"relevancy_score":null,"input_features":null,"lecture_search_result":null,"curriculum_lectures":[],"order_in_results":null,"curriculum_items":[],"headline":"Master Scrum methodology | A Step-by-Step Guide for 2021","instructor_name":null}],"aggregations":[{"id":"price","title":"Price","options":[{"key":"price","title":"Paid","count":10000,"value":"price-paid"},{"key":"price","title":"Free","count":2163,"value":"price-free"}]},{"id":"instructional_level","title":"Level","options":[{"key":"instructional_level","title":"All Levels","count":10000,"value":"all"},{"key":"instructional_level","title":"Beginner","count":5933,"value":"beginner"},{"key":"instructional_level","title":"Intermediate","count":2216,"value":"intermediate"},{"key":"instructional_level","title":"Expert","count":387,"value":"expert"}]},{"id":"features","title":"Features","options":[{"key":"has_closed_caption","title":"Captions","count":10000,"value":"true"},{"key":"has_simple_quiz","title":"Quizzes","count":4813,"value":"true"},{"key":"has_coding_exercises","title":"Coding Exercises","count":8,"value":"true"}]},{"id":"language","title":"Language","options":[{"key":"language","title":"English","count":10000,"value":"en"},{"key":"language","title":"Português","count":1623,"value":"pt"},{"key":"language","title":"Español","count":1323,"value":"es"},{"key":"language","title":"Deutsch","count":855,"value":"de"},{"key":"language","title":"日本語","count":764,"value":"ja"},{"key":"language","title":"Français","count":571,"value":"fr"},{"key":"language","title":"العربية","count":541,"value":"ar"},{"key":"language","title":"Türkçe","count":425,"value":"tr"},{"key":"language","title":"Italiano","count":263,"value":"it"},{"key":"language","title":"Русский","count":193,"value":"ru"},{"key":"language","title":"Bahasa Indonesia","count":166,"value":"id"},{"key":"language","title":"中文","count":122,"value":"zh"},{"key":"language","title":"Polski","count":102,"value":"pl"},{"key":"language","title":"한국어","count":73,"value":"ko"},{"key":"language","title":"हिन्दी","count":65,"value":"hi"},{"key":"language","title":"Magyar","count":28,"value":"hu"},{"key":"language","title":"Nederlands","count":24,"value":"nl"},{"key":"language","title":"Română","count":22,"value":"ro"},{"key":"language","title":"ภาษาไทย","count":22,"value":"th"},{"key":"language","title":"اردو","count":19,"value":"ur"},{"key":"language","title":"‏עברית‏","count":18,"value":"he"},{"key":"language","title":"Tiếng Việt","count":11,"value":"vi"},{"key":"language","title":"Ελληνικά","count":6,"value":"el"},{"key":"language","title":"தமிழ்","count":5,"value":"ta"},{"key":"language","title":"فارسی","count":4,"value":"fa"},{"key":"language","title":"Telugu","count":4,"value":"te"},{"key":"language","title":"Українська","count":4,"value":"uk"},{"key":"language","title":"Azərbaycan dili","count":3,"value":"az"},{"key":"language","title":"မြန်မာဘာသာ","count":3,"value":"my"},{"key":"language","title":"Filipino","count":3,"value":"tl"},{"key":"language","title":"Bangla","count":2,"value":"bn"},{"key":"language","title":"Hrvatski","count":2,"value":"hr"},{"key":"language","title":"Български","count":1,"value":"bg"},{"key":"language","title":"Čeština","count":1,"value":"cs"},{"key":"language","title":"Eesti","count":1,"value":"et"},{"key":"language","title":"Suomi","count":1,"value":"fi"},{"key":"language","title":"Հայերեն","count":1,"value":"hy"},{"key":"language","title":"Kannaḍa","count":1,"value":"kn"},{"key":"language","title":"Монгол","count":1,"value":"mn"},{"key":"language","title":"Bahasa Melayu","count":1,"value":"ms"},{"key":"language","title":"Slovenčina","count":1,"value":"sk"},{"key":"language","title":"Српски","count":1,"value":"sr"}]},{"id":"ratings","title":"Ratings","options":[{"key":"ratings","title":"4.5 & up","count":5914,"value":"4.5"},{"key":"ratings","title":"4.0 & up","count":10000,"value":"4.0"},{"key":"ratings","title":"3.5 & up","count":10000,"value":"3.5"},{"key":"ratings","title":"3.0 & up","count":10000,"value":"3.0"}]},{"id":"duration","title":"Duration","options":[{"key":"duration","title":"0-1 Hour","count":3853,"value":"extraShort"},{"key":"duration","title":"1-3 Hours","count":8987,"value":"short"},{"key":"duration","title":"3-6 Hours","count":3894,"value":"medium"},{"key":"duration","title":"6-17 Hours","count":2055,"value":"long"},{"key":"duration","title":"17+ Hours","count":388,"value":"extraLong"}]}],"search_tracking_id":"GoG2Kg9sSEGAF94pkL-YGQ"}