{"count":10000,"next":"https://www.udemy.com/api-2.0/courses/?category=Design&page=2&page_size=12&price=price-paid","previous":null,"results":[{"_class":"course","id":3918632,"title":"Adobe Illustrator and After Effects Bundle 2022","url":"/course/adobe-illustrator-and-after-effects-bundle/","is_paid":true,"price":"₦4,500","price_detail":{"amount":4500.0,"currency":"NGN","price_string":"₦4,500","currency_symbol":"₦"},"price_serve_tracking_id":"ci8nYuv8RYyY7BcSIgnBPQ","visible_instructors":[{"_class":"user","id":36175024,"title":"Harshit Srivastava","name":"Harshit","display_name":"Harshit Srivastava","job_title":"SME on Cloud, Bluemix","image_50x50":"https://img-b.udemycdn.com/user/50x50/36175024_f90b_7.jpg?secure=tZreuYwr7ldwaLdt8gMdbg%3D%3D%2C1640771009","image_100x100":"https://img-c.udemycdn.com/user/100x100/36175024_f90b_7.jpg","initials":"HS","url":"/user/6f61b5e2-a854-46c6-9650-3a8a385dac0d/"}],"image_125_H":"https://img-c.udemycdn.com/course/125_H/3918632_7e0e_2.jpg","image_240x135":"https://img-c.udemycdn.com/course/240x135/3918632_7e0e_2.jpg","is_practice_test_course":false,"image_480x270":"https://img-c.udemycdn.com/course/480x270/3918632_7e0e_2.jpg","published_title":"adobe-illustrator-and-after-effects-bundle","tracking_id":"h9gDyYDfTyWCFlAfRmnecA","predictive_score":null,"relevancy_score":null,"input_features":null,"lecture_search_result":null,"curriculum_lectures":[],"order_in_results":null,"curriculum_items":[],"headline":"Learn Graphics Design using Illustrator and Motion Graphics using After Effects in one course","instructor_name":null},{"_class":"course","id":4024000,"title":"Adobe Photoshop for Photo Editing and Image Retouching 2022","url":"/course/complete-adobe-photoshop-bootcamp/","is_paid":true,"price":"₦4,500","price_detail":{"amount":4500.0,"currency":"NGN","price_string":"₦4,500","currency_symbol":"₦"},"price_serve_tracking_id":"1P7lDHWZQLCw8arC5d45OA","visible_instructors":[{"_class":"user","id":36175024,"title":"Harshit Srivastava","name":"Harshit","display_name":"Harshit Srivastava","job_title":"SME on Cloud, Bluemix","image_50x50":"https://img-c.udemycdn.com/user/50x50/36175024_f90b_7.jpg","image_100x100":"https://img-c.udemycdn.com/user/100x100/36175024_f90b_7.jpg","initials":"HS","url":"/user/6f61b5e2-a854-46c6-9650-3a8a385dac0d/"}],"image_125_H":"https://img-c.udemycdn.com/course/125_H/4024000_e8a6.jpg","image_240x135":"https://img-c.udemycdn.com/course/240x135/4024000_e8a6.jpg","is_practice_test_course":false,"image_480x270":"https://img-c.udemycdn.com/course/480x270/4024000_e8a6.jpg","published_title":"complete-adobe-photoshop-bootcamp","tracking_id":"1RywIdVhTNy9N6gjOD1n8A","predictive_score":null,"relevancy_score":null,"input_features":null,"lecture_search_result":null,"curriculum_lectures":[],"order_in_results":null,"curriculum_items":[],"headline":"Master Photoshop Tools and Techniques for Creative Photo Editing in Photoshop | Old photo Restoration with Photoshop","instructor_name":null},{"_class":"course","id":1722210,"title":"Building Information Modelling : Essentials of BIM level-2","url":"/course/certificate-in-building-information-modelling-bim-level-2/","is_paid":true,"price":"₦6,500","price_detail":{"amount":6500.0,"currency":"NGN","price_string":"₦6,500","currency_symbol":"₦"},"price_serve_tracking_id":"pIYL1x25TKyIYvPZhNkiYg","visible_instructors":[{"_class":"user","id":7851756,"title":"Ayman Kandeel, CEng ®, PMP ®, MICE®, ACP®, RICS-BIM®","name":"Ayman","display_name":"Ayman Kandeel, CEng ®, PMP ®, MICE®, ACP®, RICS-BIM®","job_title":"Autodesk BIM specialist & Certified Professional instructor","image_50x50":"https://img-c.udemycdn.com/user/50x50/7851756_dab7.jpg","image_100x100":"https://img-c.udemycdn.com/user/100x100/7851756_dab7.jpg","initials":"AK","url":"/user/aymanmohamedkandeel/"}],"image_125_H":"https://img-c.udemycdn.com/course/125_H/1722210_3197_2.jpg","image_240x135":"https://img-c.udemycdn.com/course/240x135/1722210_3197_2.jpg","is_practice_test_course":false,"image_480x270":"https://img-c.udemycdn.com/course/480x270/1722210_3197_2.jpg","published_title":"certificate-in-building-information-modelling-bim-level-2","tracking_id":"iGVw1I_oQd6DhzJCGUphcg","predictive_score":null,"relevancy_score":null,"input_features":null,"lecture_search_result":null,"curriculum_lectures":[],"order_in_results":null,"curriculum_items":[],"headline":"The guide to learn the basics to understand the BIM concept.","instructor_name":null},{"_class":"course","id":4330476,"title":"Learn How to Create a Design Portfolio","url":"/course/learn-how-to-create-a-design-portfolio/","is_paid":true,"price":"₦4,500","price_detail":{"amount":4500.0,"currency":"NGN","price_string":"₦4,500","currency_symbol":"₦"},"price_serve_tracking_id":"l1n3NxS6RU67nexOfBevtA","visible_instructors":[{"_class":"user","id":124380142,"title":"Pierluigi Giglio","name":"Pierluigi","display_name":"Pierluigi Giglio","job_title":"Senior UI/UX Designer","image_50x50":"https://img-c.udemycdn.com/user/50x50/124380142_cc0a.jpg","image_100x100":"https://img-c.udemycdn.com/user/100x100/124380142_cc0a.jpg","initials":"PG","url":"/user/pierluigi-giglio-3/"}],"image_125_H":"https://img-c.udemycdn.com/course/125_H/4330476_00fb_2.jpg","image_240x135":"https://img-c.udemycdn.com/course/240x135/4330476_00fb_2.jpg","is_practice_test_course":false,"image_480x270":"https://img-c.udemycdn.com/course/480x270/4330476_00fb_2.jpg","published_title":"learn-how-to-create-a-design-portfolio","tracking_id":"ugLFABHyTYugOwJ8cFAyNg","predictive_score":null,"relevancy_score":null,"input_features":null,"lecture_search_result":null,"curriculum_lectures":[],"order_in_results":null,"curriculum_items":[],"headline":"Learn to build a UX or Graphic Design Portfolio that Recruiters, Employers and Clients will Love","instructor_name":null},{"_class":"course","id":4169702,"title":"Solar Course for Beginners of Solar Energy","url":"/course/complete-course-for-beginners-for-solar-energy/","is_paid":true,"price":"₦10,500","price_detail":{"amount":10500.0,"currency":"NGN","price_string":"₦10,500","currency_symbol":"₦"},"price_serve_tracking_id":"7UeZGqKrQd-HkoTP8GQA0w","visible_instructors":[{"_class":"user","id":166063472,"title":"J.P. Singh","name":"J.P.","display_name":"J.P. Singh","job_title":"Solar Energy Consultant","image_50x50":"https://img-c.udemycdn.com/user/50x50/166063472_6b44.jpg","image_100x100":"https://img-c.udemycdn.com/user/100x100/166063472_6b44.jpg","initials":"JS","url":"/user/jp-singh-40/"}],"image_125_H":"https://img-c.udemycdn.com/course/125_H/4169702_f03b_3.jpg","image_240x135":"https://img-c.udemycdn.com/course/240x135/4169702_f03b_3.jpg","is_practice_test_course":false,"image_480x270":"https://img-c.udemycdn.com/course/480x270/4169702_f03b_3.jpg","published_title":"complete-course-for-beginners-for-solar-energy","tracking_id":"VUMGGTLgTuKLujiUOP1XyQ","predictive_score":null,"relevancy_score":null,"input_features":null,"lecture_search_result":null,"curriculum_lectures":[],"order_in_results":null,"curriculum_items":[],"headline":"A perfect course with industry examples, tips, thumb rules & calculations for simplifying your learning for Solar Plants","instructor_name":null},{"_class":"course","id":4405904,"title":"Smart Graphics Design Blueprint","url":"/course/smart-graphics-design-blueprint/","is_paid":true,"price":"₦4,500","price_detail":{"amount":4500.0,"currency":"NGN","price_string":"₦4,500","currency_symbol":"₦"},"price_serve_tracking_id":"aCrl-7MmTVyjaqrJC_sReg","visible_instructors":[{"_class":"user","id":75131548,"title":"Emmanuel Onyewuchi","name":"Emmanuel","display_name":"Emmanuel Onyewuchi","job_title":"Digital Mentor & Internet Marketer","image_50x50":"https://img-b.udemycdn.com/user/50x50/75131548_738e.jpg?secure=qtnPL-XN4Bgy8VTRrmZSCg%3D%3D%2C1640771009","image_100x100":"https://img-c.udemycdn.com/user/100x100/75131548_738e.jpg","initials":"EO","url":"/user/emmanuel-onyewuchi/"}],"image_125_H":"https://img-c.udemycdn.com/course/125_H/4405904_a2a2_2.jpg","image_240x135":"https://img-c.udemycdn.com/course/240x135/4405904_a2a2_2.jpg","is_practice_test_course":false,"image_480x270":"https://img-c.udemycdn.com/course/480x270/4405904_a2a2_2.jpg","published_title":"smart-graphics-design-blueprint","tracking_id":"ktYyzsOOQj6luylS7rlmTQ","predictive_score":null,"relevancy_score":null,"input_features":null,"lecture_search_result":null,"curriculum_lectures":[],"order_in_results":null,"curriculum_items":[],"headline":"How to create professional graphic designs even though you are not a professional graphics designer","instructor_name":null},{"_class":"course","id":3335090,"title":"Get Started in UI/UX Design","url":"/course/ui-ux-designs/","is_paid":true,"price":"₦4,500","price_detail":{"amount":4500.0,"currency":"NGN","price_string":"₦4,500","currency_symbol":"₦"},"price_serve_tracking_id":"WZ3Q0wrEQReF-eZxcWYB1A","visible_instructors":[{"_class":"user","id":124380142,"title":"Pierluigi Giglio","name":"Pierluigi","display_name":"Pierluigi Giglio","job_title":"Senior UI/UX Designer","image_50x50":"https://img-b.udemycdn.com/user/50x50/124380142_cc0a.jpg?secure=hrnyg2T-qNLZ29I64D1szA%3D%3D%2C1640771009","image_100x100":"https://img-c.udemycdn.com/user/100x100/124380142_cc0a.jpg","initials":"PG","url":"/user/pierluigi-giglio-3/"}],"image_125_H":"https://img-c.udemycdn.com/course/125_H/3335090_4863_2.jpg","image_240x135":"https://img-c.udemycdn.com/course/240x135/3335090_4863_2.jpg","is_practice_test_course":false,"image_480x270":"https://img-c.udemycdn.com/course/480x270/3335090_4863_2.jpg","published_title":"ui-ux-designs","tracking_id":"z1YTG93lR2uiGhrPx3pDiA","predictive_score":null,"relevancy_score":null,"input_features":null,"lecture_search_result":null,"curriculum_lectures":[],"order_in_results":null,"curriculum_items":[],"headline":"Learn the Essentials of UI UX Design from a Sr. Designer with 8+ Years of Experience","instructor_name":null},{"_class":"course","id":3605314,"title":"Adobe XD - UX UI design For beginners","url":"/course/adobe-xd-ux-ui-for-beginners/","is_paid":true,"price":"₦4,500","price_detail":{"amount":4500.0,"currency":"NGN","price_string":"₦4,500","currency_symbol":"₦"},"price_serve_tracking_id":"RhDf-BZbTmSZ4eR7PTDxPg","visible_instructors":[{"_class":"user","id":44392752,"title":"Zakaria Zaki","name":"Zakaria","display_name":"Zakaria Zaki","job_title":"Products Designer","image_50x50":"https://img-b.udemycdn.com/user/50x50/44392752_24d9_2.jpg?secure=TypOEeLXPawLyNFVOnkIWw%3D%3D%2C1640771009","image_100x100":"https://img-c.udemycdn.com/user/100x100/44392752_24d9_2.jpg","initials":"ZZ","url":"/user/zakaria-zaki-5/"}],"image_125_H":"https://img-c.udemycdn.com/course/125_H/3605314_b49c_3.jpg","image_240x135":"https://img-c.udemycdn.com/course/240x135/3605314_b49c_3.jpg","is_practice_test_course":false,"image_480x270":"https://img-c.udemycdn.com/course/480x270/3605314_b49c_3.jpg","published_title":"adobe-xd-ux-ui-for-beginners","tracking_id":"xInLE0BcTn68s0EkG44EGg","predictive_score":null,"relevancy_score":null,"input_features":null,"lecture_search_result":null,"curriculum_lectures":[],"order_in_results":null,"curriculum_items":[],"headline":"Adobe XD - UX UI  Basics","instructor_name":null},{"_class":"course","id":4080638,"title":"AutoCAD 3D course 2021","url":"/course/autocad-3d-course-2021/","is_paid":true,"price":"₦8,500","price_detail":{"amount":8500.0,"currency":"NGN","price_string":"₦8,500","currency_symbol":"₦"},"price_serve_tracking_id":"Teg0sRbER5y4otQZipQLcA","visible_instructors":[{"_class":"user","id":81132120,"title":"mahad ahmed","name":"mahad","display_name":"mahad ahmed","job_title":"Designs and Modelling","image_50x50":"https://img-b.udemycdn.com/user/50x50/81132120_1858_3.jpg?secure=bAG6S-F-a2PcsnpkZaXOOQ%3D%3D%2C1640771010","image_100x100":"https://img-b.udemycdn.com/user/100x100/81132120_1858_3.jpg?secure=EbXXDjLcQSSE49Ox8Skvwg%3D%3D%2C1640771010","initials":"MA","url":"/user/mahad-82/"}],"image_125_H":"https://img-c.udemycdn.com/course/125_H/4080638_34f5.jpg","image_240x135":"https://img-c.udemycdn.com/course/240x135/4080638_34f5.jpg","is_practice_test_course":false,"image_480x270":"https://img-c.udemycdn.com/course/480x270/4080638_34f5.jpg","published_title":"autocad-3d-course-2021","tracking_id":"bWyCMll-QsOUfzTqh1HHEA","predictive_score":null,"relevancy_score":null,"input_features":null,"lecture_search_result":null,"curriculum_lectures":[],"order_in_results":null,"curriculum_items":[],"headline":"complete Autocad 3D","instructor_name":null},{"_class":"course","id":3714878,"title":"Graphic Design Theory for Beginners 101 (Essentials)","url":"/course/graphic-design-theory-for-beginners/","is_paid":true,"price":"₦4,500","price_detail":{"amount":4500.0,"currency":"NGN","price_string":"₦4,500","currency_symbol":"₦"},"price_serve_tracking_id":"xHjcOIBMRNS1qSA2GLzTEg","visible_instructors":[{"_class":"user","id":124380142,"title":"Pierluigi Giglio","name":"Pierluigi","display_name":"Pierluigi Giglio","job_title":"Senior UI/UX Designer","image_50x50":"https://img-c.udemycdn.com/user/50x50/124380142_cc0a.jpg","image_100x100":"https://img-c.udemycdn.com/user/100x100/124380142_cc0a.jpg","initials":"PG","url":"/user/pierluigi-giglio-3/"}],"image_125_H":"https://img-c.udemycdn.com/course/125_H/3714878_e2ba_2.jpg","image_240x135":"https://img-c.udemycdn.com/course/240x135/3714878_e2ba_2.jpg","is_practice_test_course":false,"image_480x270":"https://img-c.udemycdn.com/course/480x270/3714878_e2ba_2.jpg","published_title":"graphic-design-theory-for-beginners","tracking_id":"LVsyNWA9T--yt_pw9cVypg","predictive_score":null,"relevancy_score":null,"input_features":null,"lecture_search_result":null,"curriculum_lectures":[],"order_in_results":null,"curriculum_items":[],"headline":"Learn Color Theory, Typography, Layout, Grids & Design Principles in an Easy Way","instructor_name":null},{"_class":"course","id":4016206,"title":"Build Your First Unity Project for Game Development","url":"/course/build-your-first-player-in-unity/","is_paid":true,"price":"₦21,900","price_detail":{"amount":21900.0,"currency":"NGN","price_string":"₦21,900","currency_symbol":"₦"},"price_serve_tracking_id":"LQq1dYANQA6f3YychJ2NQg","visible_instructors":[{"_class":"user","id":22923344,"title":"Mammoth Interactive","name":"Mammoth","display_name":"Mammoth Interactive","job_title":"Top-Rated Instructor, 800,000+ Students","image_50x50":"https://img-c.udemycdn.com/user/50x50/22923344_6365_5.jpg","image_100x100":"https://img-b.udemycdn.com/user/100x100/22923344_6365_5.jpg?secure=52ndYiMRAuDpBEmuCVxshA%3D%3D%2C1640771009","initials":"MI","url":"/user/mammoth-interactive/"}],"image_125_H":"https://img-c.udemycdn.com/course/125_H/4016206_ffc0.jpg","image_240x135":"https://img-c.udemycdn.com/course/240x135/4016206_ffc0.jpg","is_practice_test_course":false,"image_480x270":"https://img-c.udemycdn.com/course/480x270/4016206_ffc0.jpg","published_title":"build-your-first-player-in-unity","tracking_id":"HDbvGroER_Sk9j-FRQb7JA","predictive_score":null,"relevancy_score":null,"input_features":null,"lecture_search_result":null,"curriculum_lectures":[],"order_in_results":null,"curriculum_items":[],"headline":"Learn how to create video games using Unity, the world-leading free-to-use game development tool.","instructor_name":null},{"_class":"course","id":4389098,"title":"Blender For Beginners: Making Your First 3D Scene","url":"/course/blender-for-beginners-making-your-first-3d-scene/","is_paid":true,"price":"₦4,500","price_detail":{"amount":4500.0,"currency":"NGN","price_string":"₦4,500","currency_symbol":"₦"},"price_serve_tracking_id":"JZUIjEScSvCJRpZkcjpkMA","visible_instructors":[{"_class":"user","id":169862032,"title":"Smeaf Sculpts","name":"Smeaf","display_name":"Smeaf Sculpts","job_title":"3D Generalist","image_50x50":"https://img-c.udemycdn.com/user/50x50/169862032_ed61_3.jpg","image_100x100":"https://img-c.udemycdn.com/user/100x100/169862032_ed61_3.jpg","initials":"SS","url":"/user/josiah-okeeffe-2/"}],"image_125_H":"https://img-c.udemycdn.com/course/125_H/4389098_f71e.jpg","image_240x135":"https://img-c.udemycdn.com/course/240x135/4389098_f71e.jpg","is_practice_test_course":false,"image_480x270":"https://img-c.udemycdn.com/course/480x270/4389098_f71e.jpg","published_title":"blender-for-beginners-making-your-first-3d-scene","tracking_id":"yEA5ouYiRRe9FtK6d4i_rA","predictive_score":null,"relevancy_score":null,"input_features":null,"lecture_search_result":null,"curriculum_lectures":[],"order_in_results":null,"curriculum_items":[],"headline":"Introduction to using Blender 3D. Create beautiful  3D Models and learn the foundations of 3D Modeling. Begginers Course","instructor_name":null}],"aggregations":[{"id":"price","title":"Price","options":[{"key":"price","title":"Paid","count":10000,"value":"price-paid"},{"key":"price","title":"Free","count":1300,"value":"price-free"}]},{"id":"instructional_level","title":"Level","options":[{"key":"instructional_level","title":"All Levels","count":5237,"value":"all"},{"key":"instructional_level","title":"Beginner","count":4974,"value":"beginner"},{"key":"instructional_level","title":"Intermediate","count":1734,"value":"intermediate"},{"key":"instructional_level","title":"Expert","count":218,"value":"expert"}]},{"id":"features","title":"Features","options":[{"key":"has_closed_caption","title":"Captions","count":7585,"value":"true"},{"key":"has_simple_quiz","title":"Quizzes","count":1388,"value":"true"},{"key":"has_coding_exercises","title":"Coding Exercises","count":9,"value":"true"}]},{"id":"language","title":"Language","options":[{"key":"language","title":"English","count":6472,"value":"en"},{"key":"language","title":"Español","count":1191,"value":"es"},{"key":"language","title":"Português","count":1120,"value":"pt"},{"key":"language","title":"Türkçe","count":781,"value":"tr"},{"key":"language","title":"العربية","count":405,"value":"ar"},{"key":"language","title":"日本語","count":361,"value":"ja"},{"key":"language","title":"Français","count":341,"value":"fr"},{"key":"language","title":"Italiano","count":337,"value":"it"},{"key":"language","title":"Deutsch","count":236,"value":"de"},{"key":"language","title":"Русский","count":208,"value":"ru"},{"key":"language","title":"Polski","count":156,"value":"pl"},{"key":"language","title":"हिन्दी","count":128,"value":"hi"},{"key":"language","title":"中文","count":114,"value":"zh"},{"key":"language","title":"Bahasa Indonesia","count":75,"value":"id"},{"key":"language","title":"한국어","count":66,"value":"ko"},{"key":"language","title":"اردو","count":29,"value":"ur"},{"key":"language","title":"Nederlands","count":22,"value":"nl"},{"key":"language","title":"தமிழ்","count":19,"value":"ta"},{"key":"language","title":"ภาษาไทย","count":19,"value":"th"},{"key":"language","title":"Ελληνικά","count":15,"value":"el"},{"key":"language","title":"Bangla","count":14,"value":"bn"},{"key":"language","title":"‏עברית‏","count":11,"value":"he"},{"key":"language","title":"Română","count":10,"value":"ro"},{"key":"language","title":"Malayāḷam","count":7,"value":"ml"},{"key":"language","title":"Magyar","count":4,"value":"hu"},{"key":"language","title":"O'zbek","count":4,"value":"uz"},{"key":"language","title":"Azərbaycan dili","count":3,"value":"az"},{"key":"language","title":"فارسی","count":3,"value":"fa"},{"key":"language","title":"Telugu","count":3,"value":"te"},{"key":"language","title":"Suomi","count":2,"value":"fi"},{"key":"language","title":"Tiếng Việt","count":2,"value":"vi"},{"key":"language","title":"ქართული","count":1,"value":"ka"},{"key":"language","title":"Khmer","count":1,"value":"km"},{"key":"language","title":"Kannaḍa","count":1,"value":"kn"},{"key":"language","title":"Qhichwa","count":1,"value":"qu"},{"key":"language","title":"Svenska","count":1,"value":"sv"},{"key":"language","title":"Українська","count":1,"value":"uk"},{"key":"language","title":"isiZulu","count":1,"value":"zu"}]},{"id":"ratings","title":"Ratings","options":[{"key":"ratings","title":"4.5 & up","count":4528,"value":"4.5"},{"key":"ratings","title":"4.0 & up","count":8486,"value":"4.0"},{"key":"ratings","title":"3.5 & up","count":10000,"value":"3.5"},{"key":"ratings","title":"3.0 & up","count":10000,"value":"3.0"}]},{"id":"duration","title":"Duration","options":[{"key":"duration","title":"0-1 Hour","count":1282,"value":"extraShort"},{"key":"duration","title":"1-3 Hours","count":3935,"value":"short"},{"key":"duration","title":"3-6 Hours","count":3219,"value":"medium"},{"key":"duration","title":"6-17 Hours","count":2872,"value":"long"},{"key":"duration","title":"17+ Hours","count":857,"value":"extraLong"}]}],"search_tracking_id":"rdvzJ-ORTG2eoEzHN3h3PA"}