{"count":10000,"next":"https://www.udemy.com/api-2.0/courses/?category=Development&page=2&page_size=12&price=price-paid","previous":null,"results":[{"_class":"course","id":4050984,"title":"HTML, CSS, and JavaScript projects","url":"/course/html-css-javascript-complete-course/","is_paid":true,"price":"₦15,200","price_detail":{"amount":15200.0,"currency":"NGN","price_string":"₦15,200","currency_symbol":"₦"},"price_serve_tracking_id":"lyijKRL3SSmzAPJzjXvmOA","visible_instructors":[{"_class":"user","id":65148228,"title":"Dr. Sahand Ghavidel","name":"Dr. Sahand","display_name":"Dr. Sahand Ghavidel","job_title":"Web Developer","image_50x50":"https://img-b.udemycdn.com/user/50x50/65148228_08f1.jpg?secure=E4izDp6mjzJXfhZpxKgSbA%3D%3D%2C1640771126","image_100x100":"https://img-c.udemycdn.com/user/100x100/65148228_08f1.jpg","initials":"DG","url":"/user/sahand-ghavidel/"}],"image_125_H":"https://img-c.udemycdn.com/course/125_H/4050984_9e7e_2.jpg","image_240x135":"https://img-c.udemycdn.com/course/240x135/4050984_9e7e_2.jpg","is_practice_test_course":false,"image_480x270":"https://img-c.udemycdn.com/course/480x270/4050984_9e7e_2.jpg","published_title":"html-css-javascript-complete-course","tracking_id":"0udMwiOKQoCwAjgFIUWkjA","predictive_score":null,"relevancy_score":null,"input_features":null,"lecture_search_result":null,"curriculum_lectures":[],"order_in_results":null,"curriculum_items":[],"headline":"HTML CSS JavaScript fun projects. Build modern websites and learn HTML CSS JavaScript (JS). html5 css3 javascript v2021","instructor_name":null},{"_class":"course","id":4352588,"title":"Socket IO with NodeJs Complete Programming Guide (JWT,Redis)","url":"/course/complete-socket-io-programming-guidevideo-conferencing-app/","is_paid":true,"price":"₦6,500","price_detail":{"amount":6500.0,"currency":"NGN","price_string":"₦6,500","currency_symbol":"₦"},"price_serve_tracking_id":"uFPvXcu2QWOOjq1ZCi03LQ","visible_instructors":[{"_class":"user","id":43109774,"title":"JHM ACADEMY","name":"JHM","display_name":"JHM ACADEMY","job_title":"node","image_50x50":"https://img-b.udemycdn.com/user/50x50/43109774_c0f5_2.jpg?secure=wrXZfH5CACYS1EJYu0NUAQ%3D%3D%2C1640771125","image_100x100":"https://img-b.udemycdn.com/user/100x100/43109774_c0f5_2.jpg?secure=ximDUGkLDjBdBjrLldkltQ%3D%3D%2C1640771125","initials":"JA","url":"/user/sourabh-dattaram-solkar/"}],"image_125_H":"https://img-c.udemycdn.com/course/125_H/4352588_e555.jpg","image_240x135":"https://img-c.udemycdn.com/course/240x135/4352588_e555.jpg","is_practice_test_course":false,"image_480x270":"https://img-c.udemycdn.com/course/480x270/4352588_e555.jpg","published_title":"complete-socket-io-programming-guidevideo-conferencing-app","tracking_id":"8NwU-EjcTU6Dolq7nFvXmQ","predictive_score":null,"relevancy_score":null,"input_features":null,"lecture_search_result":null,"curriculum_lectures":[],"order_in_results":null,"curriculum_items":[],"headline":"Learn Socket Programming, Socket io node js ,Redis , Use Cases in Detail with WebRTC","instructor_name":null},{"_class":"course","id":4064672,"title":"Master Amazon Web Services | A Step-by-Step Guide for 2021","url":"/course/master-amazon-web-services-a-step-by-step-guide-for-2021/","is_paid":true,"price":"₦5,500","price_detail":{"amount":5500.0,"currency":"NGN","price_string":"₦5,500","currency_symbol":"₦"},"price_serve_tracking_id":"ry_SuM91TkSAEP_IKyArWw","visible_instructors":[{"_class":"user","id":46670866,"title":"R Tutor","name":"R","display_name":"R Tutor","job_title":"A expert team of Professors and a Lawyers","image_50x50":"https://img-b.udemycdn.com/user/50x50/46670866_48df_5.jpg?secure=AGm8NU9zXjICzAMisOTcyA%3D%3D%2C1640771126","image_100x100":"https://img-b.udemycdn.com/user/100x100/46670866_48df_5.jpg?secure=ZBIiOnge4omFl1kI4f9ebw%3D%3D%2C1640771126","initials":"RT","url":"/user/rahul-878/"}],"image_125_H":"https://img-c.udemycdn.com/course/125_H/4064672_7025.jpg","image_240x135":"https://img-c.udemycdn.com/course/240x135/4064672_7025.jpg","is_practice_test_course":false,"image_480x270":"https://img-c.udemycdn.com/course/480x270/4064672_7025.jpg","published_title":"master-amazon-web-services-a-step-by-step-guide-for-2021","tracking_id":"4ZYKFzxOTKaX6unMxfwEQg","predictive_score":null,"relevancy_score":null,"input_features":null,"lecture_search_result":null,"curriculum_lectures":[],"order_in_results":null,"curriculum_items":[],"headline":"Master Amazon Web Services | A Step-by-Step Guide for 2021","instructor_name":null},{"_class":"course","id":4064664,"title":"Master Google Analytics | A Step-by-Step Guide for 2021","url":"/course/master-google-analytics-a-step-by-step-guide-for-2021/","is_paid":true,"price":"₦5,500","price_detail":{"amount":5500.0,"currency":"NGN","price_string":"₦5,500","currency_symbol":"₦"},"price_serve_tracking_id":"bKcCFtI0RuCt923mbjUIAQ","visible_instructors":[{"_class":"user","id":46670866,"title":"R Tutor","name":"R","display_name":"R Tutor","job_title":"A expert team of Professors and a Lawyers","image_50x50":"https://img-c.udemycdn.com/user/50x50/46670866_48df_5.jpg","image_100x100":"https://img-c.udemycdn.com/user/100x100/46670866_48df_5.jpg","initials":"RT","url":"/user/rahul-878/"}],"image_125_H":"https://img-c.udemycdn.com/course/125_H/4064664_625e.jpg","image_240x135":"https://img-c.udemycdn.com/course/240x135/4064664_625e.jpg","is_practice_test_course":false,"image_480x270":"https://img-c.udemycdn.com/course/480x270/4064664_625e.jpg","published_title":"master-google-analytics-a-step-by-step-guide-for-2021","tracking_id":"3DY8zb8YQnuEks6ICOKR7Q","predictive_score":null,"relevancy_score":null,"input_features":null,"lecture_search_result":null,"curriculum_lectures":[],"order_in_results":null,"curriculum_items":[],"headline":"Master Google Analytics | A Step-by-Step Guide for 2021","instructor_name":null},{"_class":"course","id":4263374,"title":"Data Science Bootcamp with Power Bi and Python","url":"/course/data-science-bootcamp-with-power-bi-and-python/","is_paid":true,"price":"₦4,500","price_detail":{"amount":4500.0,"currency":"NGN","price_string":"₦4,500","currency_symbol":"₦"},"price_serve_tracking_id":"MGqF8fa6SK-sFT1mDi-9GQ","visible_instructors":[{"_class":"user","id":36175024,"title":"Harshit Srivastava","name":"Harshit","display_name":"Harshit Srivastava","job_title":"SME on Cloud, Bluemix","image_50x50":"https://img-b.udemycdn.com/user/50x50/36175024_f90b_7.jpg?secure=Yi-AQOv5jNz7ZsFtesvFxw%3D%3D%2C1640771125","image_100x100":"https://img-c.udemycdn.com/user/100x100/36175024_f90b_7.jpg","initials":"HS","url":"/user/6f61b5e2-a854-46c6-9650-3a8a385dac0d/"}],"image_125_H":"https://img-c.udemycdn.com/course/125_H/4263374_6983.jpg","image_240x135":"https://img-c.udemycdn.com/course/240x135/4263374_6983.jpg","is_practice_test_course":false,"image_480x270":"https://img-c.udemycdn.com/course/480x270/4263374_6983.jpg","published_title":"data-science-bootcamp-with-power-bi-and-python","tracking_id":"M32Pl2haRRm7bU59Avsejw","predictive_score":null,"relevancy_score":null,"input_features":null,"lecture_search_result":null,"curriculum_lectures":[],"order_in_results":null,"curriculum_items":[],"headline":"learn to create Power bi python charts. Data Visualization, Cleaning and analysis with python Powerbi bootcamp","instructor_name":null},{"_class":"course","id":3051952,"title":"Connect with Your Totems and Spirit Animals","url":"/course/connect-with-your-totems-and-spirit-animals/","is_paid":true,"price":"₦4,500","price_detail":{"amount":4500.0,"currency":"NGN","price_string":"₦4,500","currency_symbol":"₦"},"price_serve_tracking_id":"uIU1N2v2TDiGvFGQrsUwIg","visible_instructors":[{"_class":"user","id":26001874,"title":"Jessa Michaels","name":"Jessa","display_name":"Jessa Michaels","job_title":"Meditation Coach","image_50x50":"https://img-c.udemycdn.com/user/50x50/26001874_2dc5_4.jpg","image_100x100":"https://img-c.udemycdn.com/user/100x100/26001874_2dc5_4.jpg","initials":"JM","url":"/user/jennifer-moran-7/"}],"image_125_H":"https://img-c.udemycdn.com/course/125_H/3051952_9059.jpg","image_240x135":"https://img-c.udemycdn.com/course/240x135/3051952_9059.jpg","is_practice_test_course":false,"image_480x270":"https://img-c.udemycdn.com/course/480x270/3051952_9059.jpg","published_title":"connect-with-your-totems-and-spirit-animals","tracking_id":"MUsUwXgxQsGL_abKe7EbCw","predictive_score":null,"relevancy_score":null,"input_features":null,"lecture_search_result":null,"curriculum_lectures":[],"order_in_results":null,"curriculum_items":[],"headline":"How to live in the magic of the spirit world daily","instructor_name":null},{"_class":"course","id":4064634,"title":"Master Internet of Things - IoT |Step-by-Step Guide for 2021","url":"/course/master-internet-of-things-iot-step-by-step-guide-for-2021/","is_paid":true,"price":"₦5,500","price_detail":{"amount":5500.0,"currency":"NGN","price_string":"₦5,500","currency_symbol":"₦"},"price_serve_tracking_id":"ZfRu4I0WSSSxaFhvz_uDsQ","visible_instructors":[{"_class":"user","id":46670866,"title":"R Tutor","name":"R","display_name":"R Tutor","job_title":"A expert team of Professors and a Lawyers","image_50x50":"https://img-c.udemycdn.com/user/50x50/46670866_48df_5.jpg","image_100x100":"https://img-c.udemycdn.com/user/100x100/46670866_48df_5.jpg","initials":"RT","url":"/user/rahul-878/"}],"image_125_H":"https://img-c.udemycdn.com/course/125_H/4064634_3966.jpg","image_240x135":"https://img-c.udemycdn.com/course/240x135/4064634_3966.jpg","is_practice_test_course":false,"image_480x270":"https://img-c.udemycdn.com/course/480x270/4064634_3966.jpg","published_title":"master-internet-of-things-iot-step-by-step-guide-for-2021","tracking_id":"l5VxwYmvRxiZc-ZQQ0QwUw","predictive_score":null,"relevancy_score":null,"input_features":null,"lecture_search_result":null,"curriculum_lectures":[],"order_in_results":null,"curriculum_items":[],"headline":"Master Internet of Things (IoT)| A Step-by-Step Guide for 2021","instructor_name":null},{"_class":"course","id":943296,"title":"Understanding Docker and using it for Selenium automation","url":"/course/understanding-docker-performing-selenium-automation/","is_paid":true,"price":"₦4,500","price_detail":{"amount":4500.0,"currency":"NGN","price_string":"₦4,500","currency_symbol":"₦"},"price_serve_tracking_id":"A8dnT8XdTBiOhVYbGdO06w","visible_instructors":[{"_class":"user","id":17857010,"title":"Karthik KK","name":"Karthik","display_name":"Karthik KK","job_title":"Software Architect, Consultant,Youtuber and Best Seller","image_50x50":"https://img-c.udemycdn.com/user/50x50/17857010_6f94_2.jpg","image_100x100":"https://img-b.udemycdn.com/user/100x100/17857010_6f94_2.jpg?secure=za_yd7wWUE3ruSQdbZRvaQ%3D%3D%2C1640771125","initials":"KK","url":"/user/karthik-kk/"}],"image_125_H":"https://img-c.udemycdn.com/course/125_H/943296_79ae_5.jpg","image_240x135":"https://img-c.udemycdn.com/course/240x135/943296_79ae_5.jpg","is_practice_test_course":false,"image_480x270":"https://img-c.udemycdn.com/course/480x270/943296_79ae_5.jpg","published_title":"understanding-docker-performing-selenium-automation","tracking_id":"wgypU6CvRRyX275NTNNUtA","predictive_score":null,"relevancy_score":null,"input_features":null,"lecture_search_result":null,"curriculum_lectures":[],"order_in_results":null,"curriculum_items":[],"headline":"Learn docker and containers from complete ground up","instructor_name":null},{"_class":"course","id":4407060,"title":"Unit Testing with Spring Boot + JUnit 5 + Mockito (Tutorial)","url":"/course/unit-testing-with-spring-boot-junit-5-mockito-tutorial/","is_paid":true,"price":"₦7,500","price_detail":{"amount":7500.0,"currency":"NGN","price_string":"₦7,500","currency_symbol":"₦"},"price_serve_tracking_id":"2RMeuKmxS4KQkLLr8B_Pyw","visible_instructors":[{"_class":"user","id":22671776,"title":"Programming Knowledge","name":"Programming","display_name":"Programming Knowledge","job_title":"ProgrammingKnowledge","image_50x50":"https://img-c.udemycdn.com/user/50x50/22671776_751e_2.jpg","image_100x100":"https://img-c.udemycdn.com/user/100x100/22671776_751e_2.jpg","initials":"PK","url":"/user/2bee2e1e-4b53-43d0-a71e-e077ee234db7/"}],"image_125_H":"https://img-c.udemycdn.com/course/125_H/4407060_ce00_2.jpg","image_240x135":"https://img-c.udemycdn.com/course/240x135/4407060_ce00_2.jpg","is_practice_test_course":false,"image_480x270":"https://img-c.udemycdn.com/course/480x270/4407060_ce00_2.jpg","published_title":"unit-testing-with-spring-boot-junit-5-mockito-tutorial","tracking_id":"pTBS9sSRQAS66Kmm1wdQcQ","predictive_score":null,"relevancy_score":null,"input_features":null,"lecture_search_result":null,"curriculum_lectures":[],"order_in_results":null,"curriculum_items":[],"headline":"Spring Boot: Unit Testing and Mocking With Mockito and JUnit","instructor_name":null},{"_class":"course","id":4347618,"title":"Android App Development - Build a Calculator App","url":"/course/android-app-development-build-a-calculator/","is_paid":true,"price":"₦17,500","price_detail":{"amount":17500.0,"currency":"NGN","price_string":"₦17,500","currency_symbol":"₦"},"price_serve_tracking_id":"JbJSkDQzQWqvfKrR7rc3Bw","visible_instructors":[{"_class":"user","id":53898868,"title":"Parth Prajapati","name":"Parth","display_name":"Parth Prajapati","job_title":"Android Developer, Instructor","image_50x50":"https://img-b.udemycdn.com/user/50x50/53898868_0bac.jpg?secure=40mOX-yTPcJAIhF-NNf2Zw%3D%3D%2C1640771125","image_100x100":"https://img-c.udemycdn.com/user/100x100/53898868_0bac.jpg","initials":"PP","url":"/user/parth-prajapati-14/"}],"image_125_H":"https://img-c.udemycdn.com/course/125_H/4347618_172c.jpg","image_240x135":"https://img-c.udemycdn.com/course/240x135/4347618_172c.jpg","is_practice_test_course":false,"image_480x270":"https://img-c.udemycdn.com/course/480x270/4347618_172c.jpg","published_title":"android-app-development-build-a-calculator","tracking_id":"pjKu8tIgTTKa-J0Xq8ZQBg","predictive_score":null,"relevancy_score":null,"input_features":null,"lecture_search_result":null,"curriculum_lectures":[],"order_in_results":null,"curriculum_items":[],"headline":"Learn Android App Development by building a complete Calculator App using Android Studio and Java","instructor_name":null},{"_class":"course","id":1652252,"title":"Algorithms for Job Interviews and Competitive Programming","url":"/course/algorithms-for-job-interviews-and-competitive-programming/","is_paid":true,"price":"₦11,900","price_detail":{"amount":11900.0,"currency":"NGN","price_string":"₦11,900","currency_symbol":"₦"},"price_serve_tracking_id":"a37g6McsSvmnP0YxAV83EA","visible_instructors":[{"_class":"user","id":47182052,"title":"Florian Jüngermann","name":"Florian","display_name":"Florian Jüngermann","job_title":"Competitive Programmer","image_50x50":"https://img-c.udemycdn.com/user/50x50/47182052_5fc3.jpg","image_100x100":"https://img-c.udemycdn.com/user/100x100/47182052_5fc3.jpg","initials":"FJ","url":"/user/cs-guru/"}],"image_125_H":"https://img-c.udemycdn.com/course/125_H/1652252_1489.jpg","image_240x135":"https://img-c.udemycdn.com/course/240x135/1652252_1489.jpg","is_practice_test_course":false,"image_480x270":"https://img-c.udemycdn.com/course/480x270/1652252_1489.jpg","published_title":"algorithms-for-job-interviews-and-competitive-programming","tracking_id":"pP8Ghi8DTGKByRIvvuOcPg","predictive_score":null,"relevancy_score":null,"input_features":null,"lecture_search_result":null,"curriculum_lectures":[],"order_in_results":null,"curriculum_items":[],"headline":"Quickly understand the most important Algorithms and learn how to use them to solve real Programming Problems.","instructor_name":null},{"_class":"course","id":2593610,"title":"Basic to Advanced RestAPI Automation testing step by step","url":"/course/basic-to-advanced-restapi-automation-testing-step-by-step/","is_paid":true,"price":"₦4,500","price_detail":{"amount":4500.0,"currency":"NGN","price_string":"₦4,500","currency_symbol":"₦"},"price_serve_tracking_id":"uxex08FGRTuZD_69Of0g1A","visible_instructors":[{"_class":"user","id":42020862,"title":"Rajendran CR","name":"Rajendran","display_name":"Rajendran CR","job_title":"Online Instructor","image_50x50":"https://img-c.udemycdn.com/user/50x50/42020862_641b_7.jpg","image_100x100":"https://img-c.udemycdn.com/user/100x100/42020862_641b_7.jpg","initials":"RC","url":"/user/sriram-68/"}],"image_125_H":"https://img-c.udemycdn.com/course/125_H/2593610_4766.jpg","image_240x135":"https://img-c.udemycdn.com/course/240x135/2593610_4766.jpg","is_practice_test_course":false,"image_480x270":"https://img-c.udemycdn.com/course/480x270/2593610_4766.jpg","published_title":"basic-to-advanced-restapi-automation-testing-step-by-step","tracking_id":"E3ZGr29fSV-y-vR_73Lrww","predictive_score":null,"relevancy_score":null,"input_features":null,"lecture_search_result":null,"curriculum_lectures":[],"order_in_results":null,"curriculum_items":[],"headline":"Learn RestAPI automation testing framework from step by step Basic to advanced level using Katalon studio IDE","instructor_name":null}],"aggregations":[{"id":"price","title":"Price","options":[{"key":"price","title":"Paid","count":10000,"value":"price-paid"},{"key":"price","title":"Free","count":2969,"value":"price-free"}]},{"id":"instructional_level","title":"Level","options":[{"key":"instructional_level","title":"All Levels","count":10000,"value":"all"},{"key":"instructional_level","title":"Beginner","count":9044,"value":"beginner"},{"key":"instructional_level","title":"Intermediate","count":4038,"value":"intermediate"},{"key":"instructional_level","title":"Expert","count":520,"value":"expert"}]},{"id":"features","title":"Features","options":[{"key":"has_closed_caption","title":"Captions","count":10000,"value":"true"},{"key":"has_simple_quiz","title":"Quizzes","count":5158,"value":"true"},{"key":"has_coding_exercises","title":"Coding Exercises","count":590,"value":"true"}]},{"id":"language","title":"Language","options":[{"key":"language","title":"English","count":10000,"value":"en"},{"key":"language","title":"Português","count":2115,"value":"pt"},{"key":"language","title":"Español","count":1853,"value":"es"},{"key":"language","title":"Türkçe","count":1199,"value":"tr"},{"key":"language","title":"Français","count":755,"value":"fr"},{"key":"language","title":"日本語","count":627,"value":"ja"},{"key":"language","title":"中文","count":550,"value":"zh"},{"key":"language","title":"Deutsch","count":504,"value":"de"},{"key":"language","title":"العربية","count":458,"value":"ar"},{"key":"language","title":"Русский","count":392,"value":"ru"},{"key":"language","title":"Polski","count":324,"value":"pl"},{"key":"language","title":"Italiano","count":230,"value":"it"},{"key":"language","title":"한국어","count":223,"value":"ko"},{"key":"language","title":"Bahasa Indonesia","count":185,"value":"id"},{"key":"language","title":"हिन्दी","count":105,"value":"hi"},{"key":"language","title":"ภาษาไทย","count":83,"value":"th"},{"key":"language","title":"اردو","count":46,"value":"ur"},{"key":"language","title":"Tiếng Việt","count":33,"value":"vi"},{"key":"language","title":"தமிழ்","count":26,"value":"ta"},{"key":"language","title":"Telugu","count":21,"value":"te"},{"key":"language","title":"Română","count":20,"value":"ro"},{"key":"language","title":"Nederlands","count":14,"value":"nl"},{"key":"language","title":"‏עברית‏","count":11,"value":"he"},{"key":"language","title":"فارسی","count":9,"value":"fa"},{"key":"language","title":"Azərbaycan dili","count":7,"value":"az"},{"key":"language","title":"Malayāḷam","count":7,"value":"ml"},{"key":"language","title":"Bangla","count":5,"value":"bn"},{"key":"language","title":"Ελληνικά","count":4,"value":"el"},{"key":"language","title":"မြန်မာဘာသာ","count":4,"value":"my"},{"key":"language","title":"Català","count":3,"value":"ca"},{"key":"language","title":"ગુજરાતી","count":2,"value":"gu"},{"key":"language","title":"मराठी","count":2,"value":"mr"},{"key":"language","title":"नेपाली","count":2,"value":"ne"},{"key":"language","title":"پښتو","count":2,"value":"ps"},{"key":"language","title":"O'zbek","count":2,"value":"uz"},{"key":"language","title":"Čeština","count":1,"value":"cs"},{"key":"language","title":"Suomi","count":1,"value":"fi"},{"key":"language","title":"Hrvatski","count":1,"value":"hr"},{"key":"language","title":"Magyar","count":1,"value":"hu"},{"key":"language","title":"ქართული","count":1,"value":"ka"},{"key":"language","title":"Српски","count":1,"value":"sr"},{"key":"language","title":"Svenska","count":1,"value":"sv"},{"key":"language","title":"Kiswahili","count":1,"value":"sw"},{"key":"language","title":"Українська","count":1,"value":"uk"}]},{"id":"ratings","title":"Ratings","options":[{"key":"ratings","title":"4.5 & up","count":8384,"value":"4.5"},{"key":"ratings","title":"4.0 & up","count":10000,"value":"4.0"},{"key":"ratings","title":"3.5 & up","count":10000,"value":"3.5"},{"key":"ratings","title":"3.0 & up","count":10000,"value":"3.0"}]},{"id":"duration","title":"Duration","options":[{"key":"duration","title":"0-1 Hour","count":1404,"value":"extraShort"},{"key":"duration","title":"1-3 Hours","count":6248,"value":"short"},{"key":"duration","title":"3-6 Hours","count":6482,"value":"medium"},{"key":"duration","title":"6-17 Hours","count":7327,"value":"long"},{"key":"duration","title":"17+ Hours","count":3143,"value":"extraLong"}]}],"search_tracking_id":"WR1-GkOnRPuI5bF_m4nyHA"}