{"count":10000,"next":"https://www.udemy.com/api-2.0/courses/?page=2&page_size=12&price=price-free","previous":null,"results":[{"_class":"course","id":473160,"title":"Web Design for Web Developers: Build Beautiful Websites!","url":"/course/web-design-secrets/","is_paid":false,"price":"Free","price_detail":null,"price_serve_tracking_id":"QiTpAThoQamT45VuruupSQ","visible_instructors":[{"_class":"user","id":7799204,"title":"Jonas Schmedtmann","name":"Jonas","display_name":"Jonas Schmedtmann","job_title":"Web Developer, Designer, and Teacher","image_50x50":"https://img-c.udemycdn.com/user/50x50/7799204_2091_5.jpg","image_100x100":"https://img-c.udemycdn.com/user/100x100/7799204_2091_5.jpg","initials":"JS","url":"/user/jonasschmedtmann/"}],"image_125_H":"https://img-c.udemycdn.com/course/125_H/473160_d929_3.jpg","image_240x135":"https://img-c.udemycdn.com/course/240x135/473160_d929_3.jpg","is_practice_test_course":false,"image_480x270":"https://img-c.udemycdn.com/course/480x270/473160_d929_3.jpg","published_title":"web-design-secrets","tracking_id":"gB2xL67KSIq0Ie5IuWRusQ","predictive_score":null,"relevancy_score":null,"input_features":null,"lecture_search_result":null,"curriculum_lectures":[],"order_in_results":null,"curriculum_items":[],"headline":"Learn web design in 1 hour with 25+ simple-to-use rules and guidelines — tons of amazing web design resources included!","instructor_name":null},{"_class":"course","id":433798,"title":"Introduction To Python Programming","url":"/course/pythonforbeginnersintro/","is_paid":false,"price":"Free","price_detail":null,"price_serve_tracking_id":"x1eEImZ7SnKkWlJb2wdyEg","visible_instructors":[{"_class":"user","id":10260436,"title":"Avinash Jain","name":"Avinash","display_name":"Avinash Jain","job_title":"CEO of TheCodex.me - Teaching 500,000+ Students how to code","image_50x50":"https://img-c.udemycdn.com/user/50x50/10260436_946b_6.jpg","image_100x100":"https://img-c.udemycdn.com/user/100x100/10260436_946b_6.jpg","initials":"AJ","url":"/user/avinashjain5/"},{"_class":"user","id":52310762,"title":"The Codex","name":"The","display_name":"The Codex","job_title":"Teaching Python through Projects","image_50x50":"https://img-c.udemycdn.com/user/50x50/52310762_220a.jpg","image_100x100":"https://img-c.udemycdn.com/user/100x100/52310762_220a.jpg","initials":"TC","url":"/user/thecodex/"}],"image_125_H":"https://img-c.udemycdn.com/course/125_H/433798_1de9_4.jpg","image_240x135":"https://img-c.udemycdn.com/course/240x135/433798_1de9_4.jpg","is_practice_test_course":false,"image_480x270":"https://img-c.udemycdn.com/course/480x270/433798_1de9_4.jpg","published_title":"pythonforbeginnersintro","tracking_id":"2YdSzIjfRQmEAq17PjuPlw","predictive_score":null,"relevancy_score":null,"input_features":null,"lecture_search_result":null,"curriculum_lectures":[],"order_in_results":null,"curriculum_items":[],"headline":"A Quick and Easy Intro into Python Programming","instructor_name":null},{"_class":"course","id":1122334,"title":"A Practical Introduction to Cloud Computing","url":"/course/introduction-cloud-computing/","is_paid":false,"price":"Free","price_detail":null,"price_serve_tracking_id":"Bp7hxhv3QTSA6UwMt7X3Qg","visible_instructors":[{"_class":"user","id":31767132,"title":"Neil Anderson","name":"Neil","display_name":"Neil Anderson","job_title":"Building your Cloud and Data Center career","image_50x50":"https://img-c.udemycdn.com/user/50x50/31767132_ff0c_5.jpg","image_100x100":"https://img-c.udemycdn.com/user/100x100/31767132_ff0c_5.jpg","initials":"NA","url":"/user/10f3ef32-97d9-491d-bb7a-9e10677c3bd8/"}],"image_125_H":"https://img-c.udemycdn.com/course/125_H/1122334_3363_4.jpg","image_240x135":"https://img-c.udemycdn.com/course/240x135/1122334_3363_4.jpg","is_practice_test_course":false,"image_480x270":"https://img-c.udemycdn.com/course/480x270/1122334_3363_4.jpg","published_title":"introduction-cloud-computing","tracking_id":"GanMMT7USHyRBlKR746sBw","predictive_score":null,"relevancy_score":null,"input_features":null,"lecture_search_result":null,"curriculum_lectures":[],"order_in_results":null,"curriculum_items":[],"headline":"Cloud Computing made simple with real world practical examples","instructor_name":null},{"_class":"course","id":956404,"title":"Programming 101","url":"/course/programming-101/","is_paid":false,"price":"Free","price_detail":null,"price_serve_tracking_id":"98pwbNMYQaipBo9srhodAw","visible_instructors":[{"_class":"user","id":3410094,"title":"Lawrence Turton","name":"Lawrence","display_name":"Lawrence Turton","job_title":"Technical Instructor","image_50x50":"https://img-c.udemycdn.com/user/50x50/3410094_40e1_4.jpg","image_100x100":"https://img-c.udemycdn.com/user/100x100/3410094_40e1_4.jpg","initials":"LT","url":"/user/lawrenceturton/"}],"image_125_H":"https://img-c.udemycdn.com/course/125_H/956404_da00.jpg","image_240x135":"https://img-c.udemycdn.com/course/240x135/956404_da00.jpg","is_practice_test_course":false,"image_480x270":"https://img-c.udemycdn.com/course/480x270/956404_da00.jpg","published_title":"programming-101","tracking_id":"0MmNOWpYRpCpk96bZo5Flg","predictive_score":null,"relevancy_score":null,"input_features":null,"lecture_search_result":null,"curriculum_lectures":[],"order_in_results":null,"curriculum_items":[],"headline":"Comprehend basic foundational knowledge of hardware, networking, programming and licensing.","instructor_name":null},{"_class":"course","id":797156,"title":"A Mini Course on Time Management","url":"/course/manageyourtime/","is_paid":false,"price":"Free","price_detail":null,"price_serve_tracking_id":"Nem19Mp3QgqQFpGquOkWAg","visible_instructors":[{"_class":"user","id":9304596,"title":"Brandon Hakim","name":"Brandon","display_name":"Brandon Hakim","job_title":"Founder of InsiderSchool","image_50x50":"https://img-c.udemycdn.com/user/50x50/9304596_0ac3_7.jpg","image_100x100":"https://img-c.udemycdn.com/user/100x100/9304596_0ac3_7.jpg","initials":"BH","url":"/user/brandonhakim/"},{"_class":"user","id":129334448,"title":"Insider School","name":"Insider","display_name":"Insider School","job_title":"Change Your Life In 5 Minutes A Day","image_50x50":"https://img-c.udemycdn.com/user/50x50/129334448_b32a_3.jpg","image_100x100":"https://img-b.udemycdn.com/user/100x100/129334448_b32a_3.jpg?secure=w_qccP9tCQNTtbvfZszZLg%3D%3D%2C1640770308","initials":"IS","url":"/user/insider-school/"}],"image_125_H":"https://img-c.udemycdn.com/course/125_H/797156_d7dd_5.jpg","image_240x135":"https://img-c.udemycdn.com/course/240x135/797156_d7dd_5.jpg","is_practice_test_course":false,"image_480x270":"https://img-c.udemycdn.com/course/480x270/797156_d7dd_5.jpg","published_title":"manageyourtime","tracking_id":"eGUPKUydTIS_yzg_N8W74w","predictive_score":null,"relevancy_score":null,"input_features":null,"lecture_search_result":null,"curriculum_lectures":[],"order_in_results":null,"curriculum_items":[],"headline":"7 steps you can use immediately to become more productive and master time management","instructor_name":null},{"_class":"course","id":662646,"title":"Discover your Energy Body","url":"/course/discover-your-energy-body/","is_paid":false,"price":"Free","price_detail":null,"price_serve_tracking_id":"yUFrl9TqSZmamh_03C6n7A","visible_instructors":[{"_class":"user","id":17397082,"title":"James Seriph","name":"James","display_name":"James Seriph","job_title":"Irreverent Spiritual Teacher and Energy Healer","image_50x50":"https://img-c.udemycdn.com/user/50x50/17397082_7404_2.jpg","image_100x100":"https://img-c.udemycdn.com/user/100x100/17397082_7404_2.jpg","initials":"JS","url":"/user/alexander-fairman/"}],"image_125_H":"https://img-c.udemycdn.com/course/125_H/662646_dc7b.jpg","image_240x135":"https://img-c.udemycdn.com/course/240x135/662646_dc7b.jpg","is_practice_test_course":false,"image_480x270":"https://img-c.udemycdn.com/course/480x270/662646_dc7b.jpg","published_title":"discover-your-energy-body","tracking_id":"m1gThFvPRESPD8HN53HYgA","predictive_score":null,"relevancy_score":null,"input_features":null,"lecture_search_result":null,"curriculum_lectures":[],"order_in_results":null,"curriculum_items":[],"headline":"The ChakraSchool Guide to Mastering your Chakras, Revealing the Secret World Within, and Having your Mind Blown.","instructor_name":null},{"_class":"course","id":24823,"title":"Java Tutorial for Complete Beginners","url":"/course/java-tutorial/","is_paid":false,"price":"Free","price_detail":null,"price_serve_tracking_id":"FFKM-SHKQaSMLAvtquxk0g","visible_instructors":[{"_class":"user","id":219513,"title":"John Purcell","name":"John","display_name":"John Purcell","job_title":"Software Development Trainer","image_50x50":"https://img-b.udemycdn.com/user/50x50/219513_a344_5.jpg?secure=Awk1OYzcAvEnogqGpZL7yw%3D%3D%2C1640770308","image_100x100":"https://img-c.udemycdn.com/user/100x100/219513_a344_5.jpg","initials":"JP","url":"/user/johnpurcell/"}],"image_125_H":"https://img-c.udemycdn.com/course/125_H/24823_963e_14.jpg","image_240x135":"https://img-c.udemycdn.com/course/240x135/24823_963e_14.jpg","is_practice_test_course":false,"image_480x270":"https://img-c.udemycdn.com/course/480x270/24823_963e_14.jpg","published_title":"java-tutorial","tracking_id":"-r-QR74yTnu2w5HxwIcZ0Q","predictive_score":null,"relevancy_score":null,"input_features":null,"lecture_search_result":null,"curriculum_lectures":[],"order_in_results":null,"curriculum_items":[],"headline":"Learn to program using the Java programming language","instructor_name":null},{"_class":"course","id":780078,"title":"How to speak to anyone & be fearless - in less than 55 min","url":"/course/fearless-public-speaker-bootcamp-by-ricky-mendoza/","is_paid":false,"price":"Free","price_detail":null,"price_serve_tracking_id":"JaW0SldTQPuwZvtcQk1gvg","visible_instructors":[{"_class":"user","id":8678100,"title":"Ricardo Mendoza","name":"Ricardo","display_name":"Ricardo Mendoza","job_title":"Founder of Digital Work Studios and Interpretap","image_50x50":"https://img-c.udemycdn.com/user/50x50/8678100_c955_2.jpg","image_100x100":"https://img-c.udemycdn.com/user/100x100/8678100_c955_2.jpg","initials":"RM","url":"/user/ricardomendoza9/"}],"image_125_H":"https://img-c.udemycdn.com/course/125_H/780078_e409_2.jpg","image_240x135":"https://img-c.udemycdn.com/course/240x135/780078_e409_2.jpg","is_practice_test_course":false,"image_480x270":"https://img-c.udemycdn.com/course/480x270/780078_e409_2.jpg","published_title":"fearless-public-speaker-bootcamp-by-ricky-mendoza","tracking_id":"3wXyK6aZQpmAmTgTXRVShA","predictive_score":null,"relevancy_score":null,"input_features":null,"lecture_search_result":null,"curriculum_lectures":[],"order_in_results":null,"curriculum_items":[],"headline":"Learn to quickly connect with crowds of strangers, be better on dates or ace that job interview.","instructor_name":null},{"_class":"course","id":552672,"title":"Introduction to Databases and SQL Querying","url":"/course/introduction-to-databases-and-sql-querying/","is_paid":false,"price":"Free","price_detail":null,"price_serve_tracking_id":"JY68h8nORZWk1baADgCHYA","visible_instructors":[{"_class":"user","id":9912714,"title":"Rakesh Gopalakrishnan","name":"Rakesh","display_name":"Rakesh Gopalakrishnan","job_title":"Over 600,000 Students","image_50x50":"https://img-c.udemycdn.com/user/50x50/9912714_deb0_2.jpg","image_100x100":"https://img-c.udemycdn.com/user/100x100/9912714_deb0_2.jpg","initials":"RG","url":"/user/54a6020bb2e0e/"}],"image_125_H":"https://img-c.udemycdn.com/course/125_H/552672_e2b6_5.jpg","image_240x135":"https://img-c.udemycdn.com/course/240x135/552672_e2b6_5.jpg","is_practice_test_course":false,"image_480x270":"https://img-c.udemycdn.com/course/480x270/552672_e2b6_5.jpg","published_title":"introduction-to-databases-and-sql-querying","tracking_id":"o46Xr6oqQliSiZOC9EhvLw","predictive_score":null,"relevancy_score":null,"input_features":null,"lecture_search_result":null,"curriculum_lectures":[],"order_in_results":null,"curriculum_items":[],"headline":"A step by step introduction to the concept of Databases and Introduction to SQL Querying.","instructor_name":null},{"_class":"course","id":53600,"title":"Useful Excel for Beginners","url":"/course/useful-excel-for-beginners/","is_paid":false,"price":"Free","price_detail":null,"price_serve_tracking_id":"XMAJQuReS7KED1ZIEoY-2A","visible_instructors":[{"_class":"user","id":766769,"title":"Dinesh Natarajan Mohan","name":"Dinesh","display_name":"Dinesh Natarajan Mohan","job_title":"Sharing simple but effective solutions","image_50x50":"https://img-b.udemycdn.com/user/50x50/766769_faf7_6.jpg?secure=BL52RStozYrxi1eaLid2hA%3D%3D%2C1640770308","image_100x100":"https://img-c.udemycdn.com/user/100x100/766769_faf7_6.jpg","initials":"DN","url":"/user/indzara/"}],"image_125_H":"https://img-c.udemycdn.com/course/125_H/53600_553c_4.jpg","image_240x135":"https://img-c.udemycdn.com/course/240x135/53600_553c_4.jpg","is_practice_test_course":false,"image_480x270":"https://img-c.udemycdn.com/course/480x270/53600_553c_4.jpg","published_title":"useful-excel-for-beginners","tracking_id":"6mC6sUMMTeakQCJgI6tZnA","predictive_score":null,"relevancy_score":null,"input_features":null,"lecture_search_result":null,"curriculum_lectures":[],"order_in_results":null,"curriculum_items":[],"headline":"Learn the basics of Microsoft Excel and become an effective user","instructor_name":null},{"_class":"course","id":1309210,"title":"Fundamentals of Computer Hacking","url":"/course/computer-hacking-fundamentals/","is_paid":false,"price":"Free","price_detail":null,"price_serve_tracking_id":"vrYQeHiDSmajaqG6OnChLQ","visible_instructors":[{"_class":"user","id":15683322,"title":"infySEC Global","name":"infySEC","display_name":"infySEC Global","job_title":"Head - Cyber Security Research","image_50x50":"https://img-c.udemycdn.com/user/50x50/15683322_9afd_6.jpg","image_100x100":"https://img-c.udemycdn.com/user/100x100/15683322_9afd_6.jpg","initials":"IG","url":"/user/infysec-2/"}],"image_125_H":"https://img-c.udemycdn.com/course/125_H/1309210_5dcc.jpg","image_240x135":"https://img-c.udemycdn.com/course/240x135/1309210_5dcc.jpg","is_practice_test_course":false,"image_480x270":"https://img-c.udemycdn.com/course/480x270/1309210_5dcc.jpg","published_title":"computer-hacking-fundamentals","tracking_id":"E4ynDnYMQT62dpcE3S2zUw","predictive_score":null,"relevancy_score":null,"input_features":null,"lecture_search_result":null,"curriculum_lectures":[],"order_in_results":null,"curriculum_items":[],"headline":"Everyone can become a hacker provided they learn it from the basics and build a solid foundation. Start with this course","instructor_name":null},{"_class":"course","id":1331946,"title":"Amazon Web Services (AWS) - Zero to Hero","url":"/course/amazon-web-services-aws-v/","is_paid":false,"price":"Free","price_detail":null,"price_serve_tracking_id":"CKjz4OXlSAK94QrzIsX-zA","visible_instructors":[{"_class":"user","id":27829848,"title":"BackSpace Academy","name":"BackSpace","display_name":"BackSpace Academy","job_title":"The fastest route to cloud certification.","image_50x50":"https://img-c.udemycdn.com/user/50x50/27829848_1d83.jpg","image_100x100":"https://img-c.udemycdn.com/user/100x100/27829848_1d83.jpg","initials":"BA","url":"/user/backspace-academy/"}],"image_125_H":"https://img-c.udemycdn.com/course/125_H/1331946_ed41_4.jpg","image_240x135":"https://img-c.udemycdn.com/course/240x135/1331946_ed41_4.jpg","is_practice_test_course":false,"image_480x270":"https://img-c.udemycdn.com/course/480x270/1331946_ed41_4.jpg","published_title":"amazon-web-services-aws-v","tracking_id":"HQBdd9b4TUa_YeSHSyPn4Q","predictive_score":null,"relevancy_score":null,"input_features":null,"lecture_search_result":null,"curriculum_lectures":[],"order_in_results":null,"curriculum_items":[],"headline":"Beginners, Zero to Hero. AWS EC2 web server, NodeJS Server, AWS RDS database server, S3, SES & CloudWatch. FREE","instructor_name":null}],"aggregations":[{"id":"price","title":"Price","options":[{"key":"price","title":"Paid","count":10000,"value":"price-paid"},{"key":"price","title":"Free","count":10000,"value":"price-free"}]},{"id":"instructional_level","title":"Level","options":[{"key":"instructional_level","title":"Beginner","count":10000,"value":"beginner"},{"key":"instructional_level","title":"All Levels","count":7170,"value":"all"},{"key":"instructional_level","title":"Intermediate","count":1770,"value":"intermediate"},{"key":"instructional_level","title":"Expert","count":216,"value":"expert"}]},{"id":"features","title":"Features","options":[{"key":"has_closed_caption","title":"Captions","count":10000,"value":"true"},{"key":"has_simple_quiz","title":"Quizzes","count":3068,"value":"true"},{"key":"has_coding_exercises","title":"Coding Exercises","count":65,"value":"true"}]},{"id":"language","title":"Language","options":[{"key":"language","title":"English","count":10000,"value":"en"},{"key":"language","title":"Português","count":1934,"value":"pt"},{"key":"language","title":"Español","count":1679,"value":"es"},{"key":"language","title":"Türkçe","count":863,"value":"tr"},{"key":"language","title":"日本語","count":758,"value":"ja"},{"key":"language","title":"العربية","count":626,"value":"ar"},{"key":"language","title":"Français","count":365,"value":"fr"},{"key":"language","title":"Deutsch","count":312,"value":"de"},{"key":"language","title":"Русский","count":247,"value":"ru"},{"key":"language","title":"Bahasa Indonesia","count":246,"value":"id"},{"key":"language","title":"हिन्दी","count":243,"value":"hi"},{"key":"language","title":"Italiano","count":199,"value":"it"},{"key":"language","title":"اردو","count":156,"value":"ur"},{"key":"language","title":"中文","count":134,"value":"zh"},{"key":"language","title":"한국어","count":65,"value":"ko"},{"key":"language","title":"Polski","count":61,"value":"pl"},{"key":"language","title":"Română","count":45,"value":"ro"},{"key":"language","title":"தமிழ்","count":37,"value":"ta"},{"key":"language","title":"‏עברית‏","count":34,"value":"he"},{"key":"language","title":"मराठी","count":30,"value":"mr"},{"key":"language","title":"Ελληνικά","count":29,"value":"el"},{"key":"language","title":"Bangla","count":26,"value":"bn"},{"key":"language","title":"Nederlands","count":24,"value":"nl"},{"key":"language","title":"ภาษาไทย","count":23,"value":"th"},{"key":"language","title":"ગુજરાતી","count":12,"value":"gu"},{"key":"language","title":"Azərbaycan dili","count":11,"value":"az"},{"key":"language","title":"Malayāḷam","count":11,"value":"ml"},{"key":"language","title":"Magyar","count":10,"value":"hu"},{"key":"language","title":"Tiếng Việt","count":10,"value":"vi"},{"key":"language","title":"Svenska","count":8,"value":"sv"},{"key":"language","title":"Telugu","count":7,"value":"te"},{"key":"language","title":"Hrvatski","count":6,"value":"hr"},{"key":"language","title":"Afrikaans","count":5,"value":"af"},{"key":"language","title":"Shqip","count":5,"value":"sq"},{"key":"language","title":"Eesti","count":4,"value":"et"},{"key":"language","title":"Български","count":3,"value":"bg"},{"key":"language","title":"Lietuvių","count":3,"value":"lt"},{"key":"language","title":"Македонски","count":3,"value":"mk"},{"key":"language","title":"မြန်မာဘာသာ","count":3,"value":"my"},{"key":"language","title":"Čeština","count":2,"value":"cs"},{"key":"language","title":"Dansk","count":2,"value":"da"},{"key":"language","title":"فارسی","count":2,"value":"fa"},{"key":"language","title":"Suomi","count":2,"value":"fi"},{"key":"language","title":"Қазақша","count":2,"value":"kk"},{"key":"language","title":"Bahasa Melayu","count":2,"value":"ms"},{"key":"language","title":"नेपाली","count":2,"value":"ne"},{"key":"language","title":"ਪੰਜਾਬੀ","count":2,"value":"pa"},{"key":"language","title":"پښتو","count":2,"value":"ps"},{"key":"language","title":"Filipino","count":2,"value":"tl"},{"key":"language","title":"Українська","count":2,"value":"uk"},{"key":"language","title":"Català","count":1,"value":"ca"},{"key":"language","title":"Ayisyen","count":1,"value":"ht"},{"key":"language","title":"ქართული","count":1,"value":"ka"},{"key":"language","title":"Kannaḍa","count":1,"value":"kn"},{"key":"language","title":"Latviešu","count":1,"value":"lv"},{"key":"language","title":"Norsk","count":1,"value":"nb"},{"key":"language","title":"Slovenčina","count":1,"value":"sk"},{"key":"language","title":"Soomaaliga","count":1,"value":"so"},{"key":"language","title":"Српски","count":1,"value":"sr"},{"key":"language","title":"Kiswahili","count":1,"value":"sw"},{"key":"language","title":"тоҷикӣ, تاجیکی‎, tojikī","count":1,"value":"tg"},{"key":"language","title":"O'zbek","count":1,"value":"uz"}]},{"id":"ratings","title":"Ratings","options":[{"key":"ratings","title":"4.5 & up","count":7997,"value":"4.5"},{"key":"ratings","title":"4.0 & up","count":10000,"value":"4.0"},{"key":"ratings","title":"3.5 & up","count":10000,"value":"3.5"},{"key":"ratings","title":"3.0 & up","count":10000,"value":"3.0"}]},{"id":"duration","title":"Duration","options":[{"key":"duration","title":"0-1 Hour","count":7750,"value":"extraShort"},{"key":"duration","title":"1-3 Hours","count":10000,"value":"short"},{"key":"duration","title":"3-6 Hours","count":939,"value":"medium"},{"key":"duration","title":"6-17 Hours","count":405,"value":"long"},{"key":"duration","title":"17+ Hours","count":59,"value":"extraLong"}]}],"search_tracking_id":"XY_dd97MRVqcaYJnnlV1CQ"}